Análisis con Lenguaje R de datos del Fútbol Argentino, Primera Etapa
…
## Total de valores NA: 18168

Transformación y acondicionamiento de dataset

## # A tibble: 2,821 × 34
##    torneo          fecha partido equipo_local  equipo_visitante goles_local
##    <chr>           <dbl>   <dbl> <chr>         <chr>                  <dbl>
##  1 Campeonato 2015     1       1 Velez         Aldosivi                   2
##  2 Campeonato 2015     1       2 Racing Club   Rosario Central            0
##  3 Campeonato 2015     1       3 San Lorenzo   Colon                      2
##  4 Campeonato 2015     1       4 Gimnasia (LP) Def y Justicia             0
##  5 Campeonato 2015     1       5 Godoy Cruz    San Martin (SJ)            1
##  6 Campeonato 2015     1       6 Newells       Independiente              2
##  7 Campeonato 2015     1       7 Banfield      Temperley                  0
##  8 Campeonato 2015     1       8 Crucero (M)   Tigre                      0
##  9 Campeonato 2015     1       9 Quilmes       Lanus                      0
## 10 Campeonato 2015     1      10 Union         Huracan                    1
## # ℹ 2,811 more rows
## # ℹ 28 more variables: goles_visitante <dbl>, posesion_local <dbl>,
## #   tiros_arco_local <dbl>, intentos_local <dbl>, faltas_local <dbl>,
## #   tiro_esquina_local <dbl>, posesion_visitante <dbl>,
## #   tiros_arco_visitante <dbl>, intentos_visitante <dbl>,
## #   faltas_visitante <dbl>, tiro_esquina_visitante <dbl>,
## #   amarillas_local <dbl>, amarillas_visitante <dbl>, rojas_local <dbl>, …
…
